<?xml version="1.0" encoding="UTF-8"?>
<!DOCTYPE svg PUBLIC "-//W3C//DTD SVG 1.1//EN" "http://www.w3.org/Graphics/SVG/1.1/DTD/svg11.dtd">
<!-- Creator: CorelDRAW 2018 (64 Bit) -->
<svg xmlns="http://www.w3.org/2000/svg" xml:space="preserve" width="22px" height="22px" version="1.1" style="shape-rendering:geometricPrecision; text-rendering:geometricPrecision; image-rendering:optimizeQuality; fill-rule:evenodd; clip-rule:evenodd"
viewBox="0 0 0.362 0.362"
 xmlns:xlink="http://www.w3.org/1999/xlink">
 <defs>
  <style type="text/css">
   <![CDATA[
    .fil0 {fill:gray}
   ]]>
  </style>
 </defs>
 <g id="Conteúdo_x0020_de_x0020_símbolos">
  <metadata id="CorelCorpID_0Corel-Layer"/>
  <path class="fil0" d="M0.319 0.044c0.058,0.058 0.058,0.152 0,0.21 -0.056,0.056 -0.146,0.058 -0.204,0.006l-0.028 0.028 0.012 0.012 -0.055 0.055c-0.01,0.01 -0.026,0.01 -0.036,0l0 0c-0.011,-0.011 -0.011,-0.027 0,-0.037l0.055 -0.055 0.011 0.012 0.028 -0.028c-0.052,-0.058 -0.05,-0.148 0.006,-0.203 0.058,-0.059 0.152,-0.059 0.211,0zm-0.027 0.026c0.044,0.043 0.044,0.114 0,0.158l-0.008 -0.009c0.038,-0.039 0.038,-0.102 0,-0.14l0.008 -0.009zm0.015 -0.015c0.052,0.052 0.052,0.136 0,0.187 -0.052,0.052 -0.136,0.052 -0.187,0 -0.052,-0.051 -0.052,-0.135 0,-0.187 0.051,-0.051 0.135,-0.051 0.187,0z"/>
 </g>
</svg>
