<?xml version="1.0" encoding="UTF-8"?>
<!DOCTYPE svg PUBLIC "-//W3C//DTD SVG 1.1//EN" "http://www.w3.org/Graphics/SVG/1.1/DTD/svg11.dtd">
<!-- Creator: CorelDRAW 2018 (64 Bit) -->
<svg xmlns="http://www.w3.org/2000/svg" xml:space="preserve" width="25px" height="15px" version="1.1" style="shape-rendering:geometricPrecision; text-rendering:geometricPrecision; image-rendering:optimizeQuality; fill-rule:evenodd; clip-rule:evenodd"
viewBox="0 0 0.555 0.33"
 xmlns:xlink="http://www.w3.org/1999/xlink">
 <defs>
  <style type="text/css">
   <![CDATA[
    .fil0 {fill:#002469;fill-rule:nonzero}
   ]]>
  </style>
 </defs>
 <g id="Camada_x0020_1">
  <metadata id="CorelCorpID_0Corel-Layer"/>
  <path class="fil0" d="M0.548 0.181c0.004,-0.004 0.007,-0.01 0.007,-0.016 0,-0.006 -0.003,-0.011 -0.007,-0.016l-0.143 -0.142c-0.009,-0.009 -0.023,-0.009 -0.031,0 -0.009,0.008 -0.009,0.023 0,0.031l0.104 0.105 -0.456 0c-0.012,0 -0.022,0.01 -0.022,0.022 0,0.013 0.01,0.023 0.022,0.023l0.456 0 -0.104 0.104c-0.009,0.009 -0.009,0.023 0,0.032 0.008,0.009 0.022,0.009 0.031,0l0.143 -0.143z"/>
 </g>
</svg>
